…
This dataset contains 1384617 rows and 15 columns. Each row represents a
single product from an instacart order.In total, there are 39123
products found in 131209 orders from 131209 distinct users.

There are a total of 134 aisles, with fresh vegetables and fresh fruits
having the most items ordered from compared to all other aisles.

``` r
instacart %>% 
  count(aisle) %>% 
    arrange(desc(n))
```

    ## # A tibble: 134 × 2
    ##    aisle                              n
    ##    <chr>                          <int>
    ##  1 fresh vegetables              150609
    ##  2 fresh fruits                  150473
    ##  3 packaged vegetables fruits     78493
    ##  4 yogurt                         55240
    ##  5 packaged cheese                41699
    ##  6 water seltzer sparkling water  36617
    ##  7 milk                           32644
    ##  8 chips pretzels                 31269
    ##  9 soy lactosefree                26240
    ## 10 bread                          23635
    ## # … with 124 more rows
…
